<svg width="13" height="17" viewBox="0 0 13 17" fill="none" xmlns="http://www.w3.org/2000/svg">
<path fill-rule="evenodd" clip-rule="evenodd" d="M9.67489 0C9.77748 0.952313 9.40139 1.90691 8.8442 2.59497C8.28641 3.28147 7.37181 3.81608 6.47582 3.74492C6.35462 2.81165 6.80691 1.83966 7.3236 1.23066C7.89944 0.544156 8.87229 0.0332619 9.67489 0ZM12.5699 5.3815C12.4065 5.48455 10.8381 6.47308 10.8576 8.46837C10.8782 10.8735 12.8863 11.7082 12.9956 11.7536C12.998 11.7546 12.9995 11.7552 13 11.7555C12.999 11.7584 12.9973 11.7642 12.9946 11.7727C12.9471 11.9277 12.6242 12.9807 11.8942 14.0664C11.2283 15.0566 10.5391 16.0421 9.45119 16.0627C8.92841 16.0727 8.57904 15.9188 8.21582 15.7588C7.83575 15.5914 7.44052 15.4173 6.81555 15.4173C6.16048 15.4173 5.74669 15.5967 5.34807 15.7696C5.00294 15.9193 4.66919 16.0641 4.20006 16.0831C3.15025 16.1227 2.35067 15.014 1.68013 14.0268C0.30787 12.01 -0.739507 8.32615 0.668429 5.83944C1.36619 4.60414 2.61569 3.82265 3.97081 3.80214C4.55534 3.79133 5.12141 4.01999 5.61676 4.22009C5.9952 4.37295 6.33236 4.50915 6.60495 4.50915C6.85011 4.50915 7.17857 4.37733 7.56151 4.22364C8.16411 3.98178 8.90164 3.68578 9.66183 3.76412C10.1824 3.78624 11.6433 3.97759 12.5811 5.3744C12.5788 5.3759 12.5751 5.37826 12.5699 5.3815Z" fill="white"/>
</svg>
