<svg width="127" height="42" viewBox="0 0 127 42" fill="none" xmlns="http://www.w3.org/2000/svg">
<path d="M22.4185 13.8971C22.3678 15.3679 22.2156 16.8895 22.0128 17.8025C22.1142 16.2302 21.9113 13.9985 21.5563 12.2741C21.2013 10.5496 20.1869 7.6079 19.3246 6.28919C18.5639 7.55718 17.6509 10.0931 17.1437 12.2741C16.6365 14.455 16.6365 17.0924 16.6365 17.9039C16.4844 17.2446 16.18 14.8608 16.2815 12.4769C16.3829 10.4989 16.8394 8.47012 17.093 7.55718C18.0059 4.36186 19.1218 2.38381 19.3246 2.02877C19.5275 2.33309 20.8969 4.76761 21.607 7.3543C22.3171 9.94098 22.4692 12.4262 22.4185 13.8971ZM19.3246 25.0046C18.8682 24.1931 18.2088 22.6715 18.1581 20.2877C18.1581 18.0054 19.071 16.0273 19.3246 15.6215C19.5782 16.0273 20.339 17.7518 20.4405 20.0848C20.5419 22.3672 19.7811 24.1931 19.3246 25.0046ZM22.6721 7.40502C21.8099 3.60107 19.629 0.507193 19.3246 0C18.8682 0.71007 17.093 3.44891 16.2308 6.49207C15.2671 9.89026 15.1149 12.8827 15.47 15.8244C15.7743 18.7661 17.0423 21.8093 17.0423 21.8093C17.7016 23.3816 18.716 25.1061 19.3246 25.9176C20.2883 24.7003 22.4692 20.9978 23.1286 16.1795C23.5343 13.5421 23.5343 11.209 22.6721 7.40502Z" fill="#006CB1"/>
<path d="M20.7949 26.8304H14.2014V31.2937C15.7737 29.7214 18.3097 29.7214 19.8312 31.2937C21.4035 32.866 21.4035 35.4019 19.8312 36.9235C19.8312 36.9235 19.8312 36.9235 19.7805 36.9235C18.2589 38.4451 16.1795 39.2566 14.1507 39.2566C12.1219 39.2566 10.0931 38.4958 8.52084 36.9235C5.782 34.1847 5.47768 29.9243 7.55718 26.8304C7.86149 26.4246 8.16581 26.0189 8.52084 25.6638C10.0931 24.0915 12.1726 23.3307 14.2014 23.3307V12.6797C6.33991 12.6797 0 19.0196 0 26.8811C0 34.7426 6.33991 41.0825 14.2014 41.0825C18.3097 41.0825 21.9615 39.358 24.5481 36.5685V26.8304H20.7949Z" fill="#006CB1"/>
<path d="M26.373 26.832H31.8V28.6072H29.2133V41.0334H26.373V26.832Z" fill="#006CB1"/>
<path d="M31.8516 41.0334H34.6411L34.8947 37.2802H36.2134L36.467 41.0334H39.2566L37.7857 26.832H33.3224L31.8516 41.0334ZM34.9962 35.7079L35.5034 28.6072H35.6555L36.1627 35.7079H34.9962Z" fill="#006CB1"/>
<path d="M43.3149 36.0629V38.7511C43.3149 39.1061 43.6192 39.2075 43.7714 39.2075C44.025 39.2075 44.2278 39.0047 44.2278 38.7511V35.4543C44.2278 34.9978 44.1264 34.4906 43.112 34.4906H41.9455V32.9691H43.112C43.9235 32.9691 44.2278 32.7662 44.2278 31.904V29.0637C44.2278 28.8101 44.025 28.6072 43.7714 28.6072C43.6192 28.6072 43.3149 28.7086 43.3149 29.0637V31.3968H40.4746V29.368C40.4746 28.3536 40.576 26.832 42.6048 26.832H44.9379C46.916 26.832 47.0681 28.3536 47.0681 29.368V31.6504C47.0681 33.1719 46.003 33.6284 45.1408 33.5777V33.7299C47.0681 33.6791 47.0681 35.15 47.0681 35.6572V38.5482C47.0681 39.5119 46.9667 41.0842 44.9379 41.0842H42.6048C40.6268 41.0842 40.4746 39.5626 40.4746 38.5482V36.1137H43.3149V36.0629Z" fill="#006CB1"/>
<path d="M48.8438 26.832H55.3865V41.0334H52.5463V28.6072H51.684V41.0334H48.8438V26.832Z" fill="#006CB1"/>
<path d="M57.1113 41.0334H59.9516V36.2151H61.5746C63.5527 36.2151 63.7048 34.6935 63.7048 33.6791V29.368C63.7048 28.3536 63.6034 26.832 61.5746 26.832H57.1113V41.0334ZM59.9516 34.6428V28.6072H60.3066C60.611 28.6072 60.8138 28.8608 60.8138 29.3173V33.9327C60.8138 34.3892 60.611 34.6428 60.3066 34.6428H59.9516Z" fill="#006CB1"/>
<path d="M65.0723 38.4975C65.0723 39.4611 65.1737 41.0334 67.2025 41.0334H69.5356C71.5136 41.0334 71.6658 39.5119 71.6658 38.4975V29.368C71.6658 28.3536 71.5643 26.832 69.5356 26.832H67.2025C65.2244 26.832 65.0723 28.3536 65.0723 29.368V38.4975ZM68.8255 38.7511C68.8255 39.0047 68.6226 39.2075 68.369 39.2075C68.2169 39.2075 67.9125 39.1061 67.9125 38.7511V29.0637C67.9125 28.7086 68.2169 28.6072 68.369 28.6072C68.6226 28.6072 68.8255 28.8101 68.8255 29.0637V38.7511Z" fill="#006CB1"/>
<path d="M80.6434 26.832H84.3459V41.0334H81.5056V32.1068H81.4042L79.9333 41.0334H77.7016L76.2308 32.1068H76.1293V41.0334H73.2891V26.832H76.9409L78.8175 36.8237L80.6434 26.832Z" fill="#006CB1"/>
<path d="M86.8828 26.832H89.7231V32.8169H90.5853V26.832H93.4256V41.0334H90.5853V34.3385H89.7231V41.0334H86.8828V26.832Z" fill="#00A3E8"/>
<path d="M95.0996 26.832H100.882V28.4043H97.9399V32.8169H100.628V34.3385H97.9399V39.4611H100.983V41.0334H95.0996V26.832Z" fill="#00A3E8"/>
<path d="M108.947 38.4975C109.251 38.4975 109.504 38.2439 109.504 37.7874V30.0273C109.504 29.5709 109.302 29.3173 108.947 29.3173H108.541V38.4975H108.947ZM105.7 29.3173H105.295C104.788 29.3173 104.788 29.8752 104.788 30.0273V37.7874C104.788 37.9396 104.788 38.4975 105.295 38.4975H105.7V29.3173ZM105.7 40.0698H104.077C102.099 40.0698 101.947 38.5482 101.947 37.5338V30.2809C101.947 29.2666 102.049 27.745 104.077 27.745H105.7V26.832H108.541V27.745H110.164C112.142 27.745 112.294 29.2666 112.294 30.2809V37.5338C112.294 38.5482 112.193 40.0698 110.164 40.0698H108.541V41.0334H105.7V40.0698Z" fill="#00A3E8"/>
<path d="M114.574 28.4043H112.85V26.832H119.088V28.4043H117.414V41.0334H114.574V28.4043Z" fill="#00A3E8"/>
<path d="M123.602 39.4611C123.906 39.4611 124.109 39.2075 124.109 38.7511V34.3385C124.109 33.882 123.906 33.6284 123.602 33.6284H123.247V39.4611H123.602ZM120.406 26.832H123.247V32.1068H124.87C126.848 32.1068 127 33.6284 127 34.6428V38.4975C127 39.5119 126.848 41.0334 124.87 41.0334H120.406V26.832Z" fill="#00A3E8"/>
<path d="M75.7744 22.3177C75.0643 22.3177 74.4557 22.0642 73.9992 21.6077C73.3398 20.9483 73.3398 20.1875 73.3398 18.8688C73.3398 17.5501 73.3398 16.7893 73.9992 16.13C74.4557 15.6735 75.0643 15.4199 75.7744 15.4199C77.0423 15.4199 77.9553 16.1807 78.2089 17.4994H77.1438C76.9916 16.7893 76.5352 16.3329 75.7744 16.3329C75.3686 16.3329 75.0136 16.485 74.76 16.7386C74.4049 17.0937 74.3542 17.4994 74.3542 18.8688C74.3542 20.2383 74.4557 20.644 74.76 20.999C75.0136 21.2526 75.3686 21.4048 75.7744 21.4048C76.5352 21.4048 76.9916 20.9483 77.1438 20.2383H78.2089C78.006 21.6077 76.9916 22.3177 75.7744 22.3177Z" fill="#006CB1"/>
<path d="M80.8457 22.267V15.4199H85.2583V16.3836H81.9108V18.3616H84.7511V19.2746H81.9108V21.3541H85.2583V22.267H80.8457Z" fill="#006CB1"/>
<path d="M90.2289 16.3836V22.267H89.2145V16.3836H87.3379V15.4199H92.1055V16.3836H90.2289Z" fill="#006CB1"/>
<path d="M97.1258 19.0717H95.6042V21.3541H97.1258C97.8866 21.3541 98.3431 20.9483 98.3431 20.1875C98.3431 19.4775 97.8866 19.0717 97.1258 19.0717ZM97.2272 22.267H94.5898V15.4199H95.6042V18.108H97.1765C98.4952 18.108 99.3575 18.9703 99.3575 20.1875C99.3575 21.4048 98.4952 22.267 97.2272 22.267Z" fill="#006CB1"/>
<path d="M106.055 16.9922L104.99 20.0354H107.12L106.055 16.9922ZM107.881 22.267L107.424 20.8976H104.736L104.229 22.267H103.113L105.599 15.4199H106.41L108.895 22.267H107.881Z" fill="#006CB1"/>
<path d="M111.023 20.2381H112.038C112.19 20.9482 112.697 21.4047 113.407 21.4047C114.168 21.4047 114.726 20.9482 114.726 20.2889C114.726 19.5788 114.32 19.173 113.509 19.173H112.646V18.3108H113.559C114.269 18.3108 114.625 17.905 114.625 17.2457C114.625 16.5863 114.168 16.2313 113.458 16.2313C112.697 16.2313 112.241 16.7385 112.089 17.3979H111.023C111.277 16.0284 112.19 15.3184 113.458 15.3184C114.726 15.3184 115.69 16.0284 115.69 17.195C115.69 17.905 115.335 18.4122 114.726 18.7166C115.385 18.9701 115.791 19.5281 115.791 20.3396C115.791 21.5568 114.777 22.3176 113.407 22.3176C112.241 22.3176 111.277 21.6076 111.023 20.2381Z" fill="#006CB1"/>
<path d="M120.813 22.3177C120.103 22.3177 119.495 22.0642 119.038 21.6077C118.379 20.9483 118.379 20.1875 118.379 18.8688C118.379 17.5501 118.379 16.7893 119.038 16.13C119.495 15.6735 120.103 15.4199 120.813 15.4199C122.081 15.4199 122.994 16.1807 123.248 17.4994H122.234C122.081 16.7893 121.625 16.3329 120.864 16.3329C120.458 16.3329 120.103 16.485 119.85 16.7386C119.495 17.0937 119.444 17.4994 119.444 18.8688C119.444 20.2383 119.545 20.644 119.85 20.999C120.103 21.2526 120.458 21.4048 120.864 21.4048C121.625 21.4048 122.081 20.9483 122.234 20.2383H123.299C123.045 21.6077 122.081 22.3177 120.813 22.3177Z" fill="#006CB1"/>
</svg>
