<svg width="230" height="166" viewBox="0 0 230 166" fill="none" xmlns="http://www.w3.org/2000/svg">
<path fill-rule="evenodd" clip-rule="evenodd" d="M106.246 88L103.003 89.8741L179.16 133.957L182.402 132.094L106.246 88ZM100.741 91.1708L97.4983 93.0449L173.654 137.139L176.897 135.265L100.741 91.1708ZM95.2457 94.3531L92.0032 96.2155L168.16 140.31L171.402 138.436L95.2457 94.3531ZM86.4963 99.3978L89.7388 97.5237L165.895 141.618L162.653 143.48L86.4963 99.3978ZM84.2454 100.694L81.003 102.568L157.159 146.663L160.402 144.789L84.2454 100.694ZM75.4961 105.739L78.7385 103.877L154.895 147.96L151.652 149.834L75.4961 105.739ZM70.002 108.921L73.2444 107.047L149.401 151.142L146.158 153.004L70.002 108.921ZM67.7366 110.218L64.4941 112.092L140.65 156.187L143.893 154.313L67.7366 110.218ZM59 115.263L62.2425 113.401L138.399 157.483L135.156 159.357L59 115.263ZM56.7366 116.571L53.4941 118.445L129.65 162.528L132.893 160.666L56.7366 116.571ZM48 121.616L51.2424 119.742L127.399 163.836L124.156 165.71L48 121.616Z" fill="url(#paint0_linear)"/>
<path d="M185.901 131.026C184.601 131.726 182.601 131.726 181.301 131.026L108.101 87.9258C107.401 87.5258 107.001 86.8258 107.001 86.0258V84.7258C107.001 84.7258 107.801 85.5258 108.101 85.3258L150.501 60.8258C151.801 60.1258 153.801 60.1258 155.101 60.8258L228.201 103.926C228.601 104.226 229.201 102.526 229.301 102.826V104.626C229.301 105.426 228.901 106.126 228.201 106.526L185.901 131.026Z" fill="url(#paint1_linear)"/>
<path d="M185.9 128.825C184.6 129.525 182.6 129.525 181.3 128.825L108.2 85.725C106.9 85.025 106.9 83.825 108.2 83.025L150.6 58.525C151.9 57.825 153.9 57.825 155.2 58.525L228.3 101.625C229.6 102.325 229.6 103.525 228.3 104.325L185.9 128.825Z" fill="white"/>
<path d="M185.701 104.525L199.201 112.325L192.401 116.225L179.001 108.425L185.701 104.525Z" fill="url(#paint2_linear)"/>
<path d="M168.5 94.7246L181.9 102.525L175.2 106.425L161.8 98.6246L168.5 94.7246Z" fill="url(#paint3_linear)"/>
<path d="M151.301 84.9258L164.701 92.6258L158.001 96.5258L144.601 88.8258L151.301 84.9258Z" fill="url(#paint4_linear)"/>
<path d="M153.102 66.625L184.102 84.825L180.702 86.825L149.602 68.625L153.102 66.625Z" fill="url(#paint5_linear)"/>
<path d="M134.1 75.125L147.5 82.825L140.8 86.725L127.3 78.925L134.1 75.125Z" fill="url(#paint6_linear)"/>
<g style="mix-blend-mode:multiply" opacity="0.2">
<path d="M60.8705 103.583L136.441 85.3271C137.781 84.9444 139.647 84.6574 141.895 83.9876C146.296 82.6482 148.497 84.9923 148.497 84.9923C148.497 84.9923 217.208 98.7874 221.992 104.097C224.288 106.681 224.862 108.594 224.814 109.886C224.432 110.412 223.858 110.891 223.14 111.321C222.757 111.513 222.375 111.704 221.992 111.847C221.322 112.087 220.652 112.278 219.935 112.421L125.31 142.859C123.922 143.146 122.439 143.242 121.052 143.05C120.573 143.003 119.999 142.859 119.425 142.476L60.8705 107.793C59.7224 107.123 58.7656 105.64 58.7656 104.492V104.205C59.1962 103.966 59.9616 103.775 60.8705 103.583Z" fill="url(#paint7_linear)"/>
</g>
<path d="M58.623 9.96238L75.4145 0.251089C76.0364 -0.131622 76.8497 -0.083783 77.8064 0.442445L88.5702 6.6615C89.6705 7.28341 91.0578 8.47938 92.3016 9.81887C92.8757 9.53183 93.689 9.62751 94.5501 10.1059L116.125 22.544C117.943 23.5965 120.335 26.3233 121.388 28.6674L127.081 40.9141C127.415 41.6317 127.607 42.3015 127.607 42.7799L137.462 48.4727C139.279 49.5251 140.762 52.1084 140.762 54.1655V131.569C140.762 132.621 140.38 133.387 139.758 133.722L123.349 143.194L112.394 118.987L77.8064 99.0384C75.9886 97.9859 74.5056 95.4026 74.5056 93.3456V35.317L58.623 9.96238Z" fill="url(#paint8_linear)"/>
<path d="M93.4011 29.9584C95.4581 30.9152 97.5152 31.8241 99.4766 32.9244C100.529 33.4985 101.534 34.216 102.586 34.7901C102.969 36.3688 103.591 37.8996 104.356 39.4305C105.122 40.9135 106.078 42.3008 106.892 43.736C107.035 44.023 107.179 44.31 107.322 44.5492L98.1371 39.2391C96.3192 38.1867 93.6881 35.5555 92.3008 33.4028L88.5215 27.6621C90.148 28.4275 91.7745 29.193 93.4011 29.9584Z" fill="url(#paint9_linear)"/>
<path d="M58 11.8278V17.8076C58 19.9126 58 23.0221 58 24.7921C58 26.5622 58 20.0082 58 22.1131V102.817C58 104.922 59.483 107.458 61.3009 108.51L120.908 142.954C122.726 144.007 124.209 143.146 124.209 141.088V63.6852C124.209 61.5802 122.726 59.0448 120.908 57.9923L111.053 52.2995C111.053 51.7733 110.862 51.1514 110.527 50.4338L104.834 38.187C103.83 35.8908 101.438 33.1161 99.6198 32.0636L78.0445 19.6255C77.1834 19.1471 76.418 19.0515 75.7961 19.3385C74.5523 17.999 73.1649 16.803 72.0646 16.1811L61.3009 9.96207C59.483 8.90961 58 9.77071 58 11.8278ZM105.648 49.1421L92.9702 41.8228C91.1524 40.7703 88.5212 38.1392 87.1339 35.9864L78.4272 22.6394L99.6198 34.934C100.672 35.508 102.251 37.4216 102.873 38.7132L108.135 50.0989L105.648 49.1421Z" fill="url(#paint10_linear)"/>
<path d="M86.1783 98.0345L86.0826 97.891L97.229 104.349L97.1334 104.397L112.92 128.412L116.604 134.918L116.939 134.536L101.152 104.828C101.869 104.301 102.3 103.345 102.3 102.053V78.1335C102.3 76.8897 101.917 75.5502 101.295 74.3064L116.078 62.2032L116.317 62.1075L116.652 61.7248L97.3726 70.0488L97.4204 70.0966L86.1783 63.5905L66.8992 32.9258L66.5643 33.3085L69.4346 38.2837L69.626 38.3316L81.9206 62.6337C81.0595 63.1121 80.5811 64.1167 80.5811 65.5519V89.4713C80.5811 90.9065 81.1073 92.4852 81.9206 93.9204L66.3251 105.258L65.9902 105.641L70.1522 103.871L86.1783 98.0345ZM99.8602 100.57C99.8602 101.862 98.9512 102.388 97.8031 101.766L85.1736 94.4944C84.0255 93.8247 83.1166 92.246 83.1166 90.9065V66.9871C83.1166 65.6954 84.0255 65.1692 85.1736 65.7911L97.8031 73.0626C98.9512 73.7324 99.8602 75.311 99.8602 76.6505V100.57Z" fill="url(#paint11_linear)"/>
<path d="M85.8424 98.4173L85.7467 98.2738L96.8932 104.732L96.7975 104.78L116.651 134.918L100.864 105.21C101.581 104.684 102.012 103.727 102.012 102.436V78.5163C102.012 77.2725 101.629 75.933 101.007 74.6892L116.364 62.1076L97.0845 70.4316L97.1324 70.4794L85.8902 63.9733L66.6112 33.3086L81.6326 63.0165C80.7715 63.4949 80.2931 64.4996 80.2931 65.9347V89.8542C80.2931 91.2893 80.8193 92.868 81.6326 94.3032L66.0371 105.641L85.8424 98.4173ZM84.8378 66.2217L97.4673 73.4933C98.6154 74.163 99.5243 75.7417 99.5243 77.0812V101.001C99.5243 102.292 98.6154 102.819 97.4673 102.197L84.8378 94.9251C83.6897 94.2553 82.7807 92.6767 82.7807 91.3372V67.4177C82.7329 66.0782 83.6897 65.552 84.8378 66.2217Z" fill="url(#paint12_linear)"/>
<path d="M113.686 50.0496V48.7101H117.991C121.77 47.0835 127.033 47.0835 130.764 48.7579H134.83V49.906V49.9539C134.83 51.5326 133.778 53.0634 131.721 54.2594C127.559 56.6513 120.909 56.6513 116.795 54.3072C114.69 53.1591 113.686 51.6282 113.686 50.0496Z" fill="#D1D4F8"/>
<path d="M116.747 53.1595C120.861 55.5515 127.559 55.5036 131.673 53.1117C135.835 50.7197 135.835 46.8448 131.721 44.5007C127.607 42.1087 120.909 42.1566 116.795 44.5485C112.681 46.9405 112.633 50.7676 116.747 53.1595Z" fill="#F7F9FC"/>
<path d="M114.883 48.1367V43.7834H118.71C122.106 42.3482 126.747 42.3482 130.048 43.8312H133.635V48.041V48.0889C133.635 49.4762 132.679 50.8635 130.861 51.916C127.177 54.0209 121.245 54.0687 117.609 51.9638C115.744 50.9114 114.835 49.524 114.883 48.1367Z" fill="url(#paint13_linear)"/>
<path d="M117.608 47.7065C121.244 49.8114 127.224 49.8114 130.859 47.6587C134.543 45.5538 134.543 42.1094 130.907 40.0045C127.271 37.8996 121.292 37.8996 117.656 40.0045C113.972 42.1572 113.924 45.6016 117.608 47.7065Z" fill="url(#paint14_linear)"/>
<g style="mix-blend-mode:multiply">
<path d="M70.0921 111.323C64.0756 107.877 56.1315 106.241 48.3043 106.475H36.0377V108.461C33.7012 109.22 31.4815 110.155 29.5539 111.265C18.3971 117.749 18.4555 128.263 29.6707 134.747C31.5983 135.856 33.7596 136.791 36.0377 137.492V139.595H50.7576C57.8255 139.478 64.835 137.843 70.2674 134.747C81.3657 128.321 81.3073 117.807 70.0921 111.323Z" fill="url(#paint15_linear)"/>
</g>
<path d="M8 115.471C8 111.324 10.7454 107.177 16.2361 104.022C21.7269 100.868 28.9116 99.291 36.0964 99.291C43.2811 99.291 50.4659 100.868 55.9566 104.022C61.4474 107.177 64.1928 111.324 64.1928 115.471C64.1928 119.619 61.4474 123.766 55.9566 126.92C50.4659 130.074 43.2811 131.652 36.0964 131.652C28.9116 131.652 21.7269 130.074 16.2361 126.92C10.7454 123.766 8 119.619 8 115.471Z" fill="url(#paint16_linear)"/>
<path d="M56.0153 126.92C50.5245 130.074 43.3397 131.651 36.155 131.651C28.9703 131.651 21.7855 130.074 16.2948 126.92C10.804 123.765 8.05859 119.618 8.05859 115.471V123.473C8.05859 127.621 10.804 131.768 16.2948 134.922C21.7855 138.076 28.9703 139.653 36.155 139.653C43.3397 139.653 50.5245 138.076 56.0153 134.922C61.506 131.768 64.2514 127.621 64.2514 123.473V115.471C64.2514 119.618 61.506 123.765 56.0153 126.92Z" fill="url(#paint17_linear)"/>
<path d="M19.9754 124.759C24.4148 127.329 30.256 128.615 36.0973 128.615C41.9385 128.615 47.7798 127.329 52.2191 124.759C56.308 122.364 58.5277 119.327 58.8781 116.231C58.5861 113.135 56.3664 110.039 52.2191 107.703C47.7798 105.133 41.9385 103.848 36.0973 103.848C30.256 103.848 24.4148 105.133 19.9754 107.703C15.8866 110.098 13.6669 113.135 13.3164 116.231C13.6669 119.327 15.8866 122.423 19.9754 124.759Z" fill="url(#paint18_linear)"/>
<path d="M19.9756 107.702C24.415 105.132 30.2562 103.847 36.0974 103.847C41.9387 103.847 47.78 105.132 52.2193 107.702C56.3082 110.097 58.5278 113.134 58.8783 116.23C58.8783 115.996 58.9367 115.704 58.9367 115.471C58.9367 112.083 56.7171 108.753 52.2777 106.125C47.8384 103.555 41.9971 102.27 36.1559 102.27C30.3146 102.27 24.4734 103.555 20.034 106.125C15.5947 108.695 13.375 112.083 13.375 115.471C13.375 115.704 13.375 115.996 13.4334 116.23C13.6671 113.134 15.8867 110.097 19.9756 107.702Z" fill="url(#paint19_linear)"/>
<g style="mix-blend-mode:multiply">
<path d="M105.9 121.839C101.344 118.393 95.2694 116.757 89.2529 116.991H79.9069V118.977C78.1545 119.736 76.4606 120.671 74.9419 121.78C66.4136 128.264 66.4721 138.778 75.0587 145.262C76.519 146.372 78.1545 147.307 79.9069 148.008V150.111H91.1221C96.4961 149.994 101.87 148.358 105.959 145.262C114.487 138.837 114.429 128.323 105.9 121.839Z" fill="url(#paint20_linear)"/>
</g>
<path d="M94.509 114.713C91.5884 111.734 87.85 109.514 83.9947 108.112C77.511 105.834 70.3846 106.009 65.1859 109.047C62.4989 110.624 60.5713 112.785 59.5783 115.297L57.125 121.255C58.1764 118.802 60.0456 116.582 62.7326 115.005C66.1205 113.019 70.3262 112.26 74.6487 112.61C80.9573 113.077 87.4411 115.94 92.1141 120.671C97.4296 126.045 98.9483 132.529 96.7871 137.669L99.2404 131.711C101.285 126.571 99.7661 120.087 94.509 114.713Z" fill="url(#paint21_linear)"/>
<path d="M93.8096 116.291C101.637 124.235 101.228 134.691 92.875 139.539C84.5221 144.387 71.3793 141.875 63.4936 133.873C55.6663 125.87 56.0752 115.473 64.4282 110.625C72.8396 105.777 85.9823 108.288 93.8096 116.291Z" fill="url(#paint22_linear)"/>
<path d="M103.797 133.58C102.979 135.566 102.161 137.552 101.344 139.538C100.059 142.575 97.7805 145.262 94.3926 147.19C84.112 153.148 67.9318 150.052 58.2353 140.239C51.6931 133.638 49.8239 125.636 52.4525 119.269C53.2703 117.283 54.088 115.297 54.9058 113.311C52.2772 119.619 54.2049 127.622 60.6887 134.281C70.3267 144.094 86.5654 147.19 96.846 141.232C100.175 139.304 102.512 136.676 103.797 133.58Z" fill="url(#paint23_linear)"/>
<path d="M97.9564 112.669C107.653 122.482 107.127 135.274 96.8466 141.291C86.566 147.249 70.3857 144.153 60.6893 134.34C50.9928 124.526 51.5185 111.676 61.7991 105.718C72.1381 99.7012 88.3184 102.855 97.9564 112.669ZM64.194 132.295C72.0213 140.239 85.2225 142.81 93.5755 137.961C101.928 133.113 102.337 122.657 94.5101 114.713C86.6828 106.769 73.4816 104.199 65.1286 109.047C56.7756 113.895 56.3668 124.293 64.194 132.295Z" fill="url(#paint24_linear)"/>
<path d="M50.4913 105.36H47.8943C46.6958 103.961 45.0976 102.563 43.1 101.564C33.3114 95.9708 17.1304 95.9708 7.34181 101.564C5.34415 102.763 3.74602 103.961 2.54742 105.36H0.150229V110.753C-0.249303 114.749 2.14789 118.944 7.34181 122.14C17.1304 127.734 33.3114 127.734 43.1 122.14C48.4936 119.144 50.8908 114.949 50.2915 110.753V105.36H50.4913Z" fill="url(#paint25_linear)"/>
<path d="M43.0996 94.1736C33.311 88.5802 17.13 88.5802 7.34141 94.1736C-2.44714 99.7671 -2.44714 109.156 7.34141 114.75C17.13 120.343 33.311 120.343 43.0996 114.75C52.8881 109.156 52.8881 99.9668 43.0996 94.1736Z" fill="url(#paint26_linear)"/>
<path d="M41.3035 94.7724C32.5138 89.5785 17.9308 89.5785 9.14111 94.7724C0.3514 99.9663 0.3514 108.157 9.14111 113.351C17.9308 118.545 32.5138 118.545 41.3035 113.351C50.0932 108.356 50.0932 99.9663 41.3035 94.7724Z" fill="#FFB333"/>
<path d="M39.3051 95.9719C31.5142 91.5771 18.929 91.5771 11.1381 95.9719C3.3472 100.367 3.3472 107.558 11.1381 111.953C18.929 116.348 31.5142 116.348 39.3051 111.953C47.096 107.558 47.096 100.367 39.3051 95.9719Z" fill="#FFCD39"/>
<path d="M27.1192 109.555H20.1274C18.5292 109.555 17.1309 108.756 17.1309 107.757V106.958H21.3259V107.158H27.1192C28.3178 107.158 29.1168 106.559 29.1168 105.959C29.1168 105.56 28.5175 105.16 27.7185 105.16H22.5245C19.5281 105.16 17.1309 103.762 17.1309 101.964V101.565C17.1309 99.5669 19.9276 97.9688 23.3236 97.9688H30.3154C31.9136 97.9688 33.3119 98.7678 33.3119 99.7666V100.765H29.1168V100.566H23.3236C22.125 100.566 21.3259 101.165 21.3259 101.764V101.964C21.3259 102.364 21.9252 102.763 22.7243 102.763H27.9182C30.9147 102.763 33.3119 104.162 33.3119 105.959C33.3119 107.957 30.5152 109.555 27.1192 109.555Z" fill="#BF9105"/>
<path d="M27.3181 96.7695H23.123V110.953H27.3181V96.7695Z" fill="#BF9105"/>
<path d="M50.4913 96.3715H47.8943C46.6958 94.9731 45.0976 93.5748 43.1 92.5759C33.3114 86.9825 17.1304 86.9825 7.34181 92.5759C5.34415 93.7745 3.74602 94.9731 2.54742 96.3715H0.150229V101.765C-0.249303 105.761 2.14789 109.956 7.34181 113.152C17.1304 118.745 33.3114 118.745 43.1 113.152C48.4936 110.155 50.8908 105.96 50.2915 101.765V96.3715H50.4913Z" fill="url(#paint27_linear)"/>
<path d="M43.0996 85.1853C33.311 79.5919 17.13 79.5919 7.34141 85.1853C-2.44714 90.7788 -2.44714 100.168 7.34141 105.761C17.13 111.355 33.311 111.355 43.0996 105.761C52.8881 100.168 52.8881 90.9785 43.0996 85.1853Z" fill="url(#paint28_linear)"/>
<path d="M41.3035 85.7841C32.5138 80.5902 17.9308 80.5902 9.14111 85.7841C0.3514 90.978 0.3514 99.1684 9.14111 104.362C17.9308 109.556 32.5138 109.556 41.3035 104.362C50.0932 99.3682 50.0932 90.978 41.3035 85.7841Z" fill="#FFB333"/>
<path d="M39.3051 86.9836C31.5142 82.5888 18.929 82.5888 11.1381 86.9836C3.3472 91.3785 3.3472 98.5701 11.1381 102.965C18.929 107.36 31.5142 107.36 39.3051 102.965C47.096 98.5701 47.096 91.3785 39.3051 86.9836Z" fill="#FFCD39"/>
<path d="M27.1192 100.567H20.1274C18.5292 100.567 17.1309 99.7678 17.1309 98.769V97.9699H21.3259V98.1697H27.1192C28.3178 98.1697 29.1168 97.5704 29.1168 96.9711C29.1168 96.5716 28.5175 96.1721 27.7185 96.1721H22.5245C19.5281 96.1721 17.1309 94.7737 17.1309 92.9758V92.5763C17.1309 90.5786 19.9276 88.9805 23.3236 88.9805H30.3154C31.9136 88.9805 33.3119 89.7795 33.3119 90.7784V91.7772H29.1168V91.3777H23.3236C22.125 91.3777 21.3259 91.977 21.3259 92.5763V92.9758C21.3259 93.3753 21.9252 93.7749 22.7243 93.7749H27.9182C30.9147 93.7749 33.3119 95.1732 33.3119 96.9711C33.3119 98.9688 30.5152 100.567 27.1192 100.567Z" fill="#BF9105"/>
<path d="M27.3181 87.7812H23.123V101.965H27.3181V87.7812Z" fill="#BF9105"/>
<path d="M50.4913 87.3813H47.8943C46.6958 85.9829 45.0976 84.5845 43.1 83.5857C33.3114 77.9923 17.1304 77.9923 7.34181 83.5857C5.34415 84.7843 3.74602 85.9829 2.54742 87.3813H0.150229V92.775C-0.249303 96.7703 2.14789 100.965 7.34181 104.162C17.1304 109.755 33.3114 109.755 43.1 104.162C48.4936 101.165 50.8908 96.97 50.2915 92.775V87.3813H50.4913Z" fill="url(#paint29_linear)"/>
<path d="M43.0996 76.1951C33.311 70.6016 17.13 70.6016 7.34141 76.1951C-2.44714 81.7885 -2.44714 91.1776 7.34141 96.771C17.13 102.364 33.311 102.364 43.0996 96.771C52.8881 91.1776 52.8881 81.9883 43.0996 76.1951Z" fill="url(#paint30_linear)"/>
<path d="M41.3035 76.7939C32.5138 71.6 17.9308 71.6 9.14111 76.7939C0.3514 81.9878 0.3514 90.1782 9.14111 95.3721C17.9308 100.566 32.5138 100.566 41.3035 95.3721C50.0932 90.378 50.0932 81.9878 41.3035 76.7939Z" fill="url(#paint31_linear)"/>
<path d="M39.3051 77.9934C31.5142 73.5986 18.929 73.5986 11.1381 77.9934C3.3472 82.3883 3.3472 89.5798 11.1381 93.9747C18.929 98.3696 31.5142 98.3696 39.3051 93.9747C47.096 89.5798 47.096 82.3883 39.3051 77.9934Z" fill="url(#paint32_linear)"/>
<defs>
<linearGradient id="paint0_linear" x1="180.85" y1="58.6663" x2="38.0328" y2="168.112" gradientUnits="userSpaceOnUse">
<stop stop-color="#35C2FE"/>
<stop offset="1" stop-color="#00A3E8"/>
</linearGradient>
<linearGradient id="paint1_linear" x1="108.413" y1="33.4057" x2="239.097" y2="132.797" gradientUnits="userSpaceOnUse">
<stop stop-color="#35C2FE"/>
<stop offset="1" stop-color="#00A3E8"/>
</linearGradient>
<linearGradient id="paint2_linear" x1="179.234" y1="100.109" x2="200.727" y2="116.55" gradientUnits="userSpaceOnUse">
<stop stop-color="#35C2FE"/>
<stop offset="1" stop-color="#00A3E8"/>
</linearGradient>
<linearGradient id="paint3_linear" x1="162.033" y1="90.3081" x2="183.497" y2="106.647" gradientUnits="userSpaceOnUse">
<stop stop-color="#35C2FE"/>
<stop offset="1" stop-color="#00A3E8"/>
</linearGradient>
<linearGradient id="paint4_linear" x1="144.833" y1="80.5471" x2="166.162" y2="96.9226" gradientUnits="userSpaceOnUse">
<stop stop-color="#35C2FE"/>
<stop offset="1" stop-color="#00A3E8"/>
</linearGradient>
<linearGradient id="paint5_linear" x1="150" y1="59" x2="187" y2="87" gradientUnits="userSpaceOnUse">
<stop stop-color="#35C2FE"/>
<stop offset="1" stop-color="#00A3E8"/>
</linearGradient>
<linearGradient id="paint6_linear" x1="127.533" y1="70.7463" x2="148.889" y2="87.2243" gradientUnits="userSpaceOnUse">
<stop stop-color="#35C2FE"/>
<stop offset="1" stop-color="#00A3E8"/>
</linearGradient>
<linearGradient id="paint7_linear" x1="189.072" y1="91.1261" x2="125.944" y2="115.505" gradientUnits="userSpaceOnUse">
<stop stop-color="white"/>
<stop offset="0.148" stop-color="#FBFBFC"/>
<stop offset="1" stop-color="#636C9E"/>
</linearGradient>
<linearGradient id="paint8_linear" x1="67.3463" y1="3.98248" x2="151.045" y2="65.3262" gradientUnits="userSpaceOnUse">
<stop stop-color="#FF9B72"/>
<stop offset="1" stop-color="#F56225"/>
</linearGradient>
<linearGradient id="paint9_linear" x1="85.6552" y1="31.2686" x2="107.77" y2="35.8873" gradientUnits="userSpaceOnUse">
<stop stop-color="#F05F22"/>
<stop offset="1" stop-color="#CD4209"/>
</linearGradient>
<linearGradient id="paint10_linear" x1="65.0314" y1="13.2355" x2="139.15" y2="60.0645" gradientUnits="userSpaceOnUse">
<stop stop-color="#FFCEBA"/>
<stop offset="1" stop-color="#FDB191"/>
</linearGradient>
<linearGradient id="paint11_linear" x1="58.2229" y1="54.7079" x2="120.223" y2="60.5178" gradientUnits="userSpaceOnUse">
<stop stop-color="#9E3307"/>
<stop offset="1" stop-color="#CD4209"/>
</linearGradient>
<linearGradient id="paint12_linear" x1="58.3208" y1="55.009" x2="119.916" y2="60.7646" gradientUnits="userSpaceOnUse">
<stop stop-color="#F05F22"/>
<stop offset="1" stop-color="#CD4209"/>
</linearGradient>
<linearGradient id="paint13_linear" x1="123.079" y1="44.0809" x2="121.8" y2="51.471" gradientUnits="userSpaceOnUse">
<stop stop-color="#3FA8FF"/>
<stop offset="1" stop-color="#006AC1"/>
</linearGradient>
<linearGradient id="paint14_linear" x1="113.304" y1="38.4396" x2="115.365" y2="52.363" gradientUnits="userSpaceOnUse">
<stop stop-color="#A8D8FF"/>
<stop offset="1" stop-color="#4BAEFF"/>
</linearGradient>
<linearGradient id="paint15_linear" x1="21.1667" y1="123.079" x2="78.5629" y2="123.079" gradientUnits="userSpaceOnUse">
<stop offset="0.4525" stop-color="#C6CAE3"/>
<stop offset="1" stop-color="white"/>
</linearGradient>
<linearGradient id="paint16_linear" x1="17.7543" y1="124.755" x2="34.1045" y2="141.426" gradientUnits="userSpaceOnUse">
<stop stop-color="#3FA8FF"/>
<stop offset="1" stop-color="#006AC1"/>
</linearGradient>
<linearGradient id="paint17_linear" x1="32.6227" y1="118.532" x2="30.4559" y2="135.286" gradientUnits="userSpaceOnUse">
<stop stop-color="#3FA8FF"/>
<stop offset="1" stop-color="#006AC1"/>
</linearGradient>
<linearGradient id="paint18_linear" x1="9.51397" y1="103.879" x2="13.9446" y2="135.732" gradientUnits="userSpaceOnUse">
<stop stop-color="#A8D8FF"/>
<stop offset="1" stop-color="#4BAEFF"/>
</linearGradient>
<linearGradient id="paint19_linear" x1="33.2919" y1="104.037" x2="32.394" y2="113.788" gradientUnits="userSpaceOnUse">
<stop stop-color="#3FA8FF"/>
<stop offset="1" stop-color="#006AC1"/>
</linearGradient>
<linearGradient id="paint20_linear" x1="68.5761" y1="133.571" x2="112.336" y2="133.571" gradientUnits="userSpaceOnUse">
<stop offset="0.4525" stop-color="#C6CAE3"/>
<stop offset="1" stop-color="white"/>
</linearGradient>
<linearGradient id="paint21_linear" x1="75.9181" y1="110.502" x2="71.3694" y2="131.423" gradientUnits="userSpaceOnUse">
<stop stop-color="#3FA8FF"/>
<stop offset="1" stop-color="#006AC1"/>
</linearGradient>
<linearGradient id="paint22_linear" x1="54.4162" y1="108.201" x2="63.2832" y2="150.725" gradientUnits="userSpaceOnUse">
<stop stop-color="#A8D8FF"/>
<stop offset="1" stop-color="#4BAEFF"/>
</linearGradient>
<linearGradient id="paint23_linear" x1="74.2512" y1="117.983" x2="68.9925" y2="142.871" gradientUnits="userSpaceOnUse">
<stop stop-color="#3FA8FF"/>
<stop offset="1" stop-color="#006AC1"/>
</linearGradient>
<linearGradient id="paint24_linear" x1="62.6218" y1="135.443" x2="82.5971" y2="149.849" gradientUnits="userSpaceOnUse">
<stop stop-color="#3FA8FF"/>
<stop offset="1" stop-color="#006AC1"/>
</linearGradient>
<linearGradient id="paint25_linear" x1="22.1322" y1="101.036" x2="18.7093" y2="120.849" gradientUnits="userSpaceOnUse">
<stop stop-color="#3FA8FF"/>
<stop offset="1" stop-color="#006AC1"/>
</linearGradient>
<linearGradient id="paint26_linear" x1="-4.20965" y1="90.0153" x2="1.25257" y2="127.186" gradientUnits="userSpaceOnUse">
<stop stop-color="#A8D8FF"/>
<stop offset="1" stop-color="#4BAEFF"/>
</linearGradient>
<linearGradient id="paint27_linear" x1="22.1322" y1="92.0478" x2="18.7093" y2="111.86" gradientUnits="userSpaceOnUse">
<stop stop-color="#3FA8FF"/>
<stop offset="1" stop-color="#006AC1"/>
</linearGradient>
<linearGradient id="paint28_linear" x1="-4.20965" y1="81.027" x2="1.25257" y2="118.198" gradientUnits="userSpaceOnUse">
<stop stop-color="#A8D8FF"/>
<stop offset="1" stop-color="#4BAEFF"/>
</linearGradient>
<linearGradient id="paint29_linear" x1="22.1322" y1="83.0576" x2="18.7093" y2="102.87" gradientUnits="userSpaceOnUse">
<stop stop-color="#3FA8FF"/>
<stop offset="1" stop-color="#006AC1"/>
</linearGradient>
<linearGradient id="paint30_linear" x1="-4.20965" y1="72.0368" x2="1.25257" y2="109.208" gradientUnits="userSpaceOnUse">
<stop stop-color="#A8D8FF"/>
<stop offset="1" stop-color="#4BAEFF"/>
</linearGradient>
<linearGradient id="paint31_linear" x1="10.4204" y1="93.6481" x2="23.7454" y2="107.103" gradientUnits="userSpaceOnUse">
<stop stop-color="#3FA8FF"/>
<stop offset="1" stop-color="#006AC1"/>
</linearGradient>
<linearGradient id="paint32_linear" x1="1.96888" y1="74.7259" x2="6.16993" y2="103.71" gradientUnits="userSpaceOnUse">
<stop stop-color="#A8D8FF"/>
<stop offset="1" stop-color="#4BAEFF"/>
</linearGradient>
</defs>
</svg>
